ADMIXTOOLS 2 Tutorial • admixtools
…
qpadm_rotate() tests many qpadm() models at
a time. For each model, the leftright populations will be
split into two groups: The first group will be the left
populations passed to qpadm(), while the second group will
be added to rightfix and become the set of right
populations. By default, this function will only compute p-values but
not weights for each model (which makes it faster). If you want the full
output for each model, set full_results = TRUE.

qpadm_rotate(f2_blocks, leftright = pops[3:7], target = pops[1], rightfix = pops[1:2])

## ℹ Evaluating 25 models...

## # A tibble: 25 x 7
##    left      right     f4rank   dof   chisq        p feasible
##    <list>    <list>     <dbl> <dbl>   <dbl>    <dbl> <lgl>   
##  1 <chr [1]> <chr [6]>      0     5 26194.  0        TRUE    
##  2 <chr [1]> <chr [6]>      0     5 53965.  0        TRUE    
##  3 <chr [1]> <chr [6]>      0     5 43564.  0        TRUE    
##  4 <chr [1]> <chr [6]>      0     5 54909.  0        TRUE    
##  5 <chr [1]> <chr [6]>      0     5 13167.  0        TRUE    
##  6 <chr [2]> <chr [5]>      1     3 10602.  0        FALSE   
##  7 <chr [2]> <chr [5]>      1     3 13506.  0        FALSE   
##  8 <chr [2]> <chr [5]>      1     3 13447.  0        FALSE   
##  9 <chr [2]> <chr [5]>      1     3    72.2 1.46e-15 FALSE   
## 10 <chr [2]> <chr [5]>      1     3  4030.  0        FALSE   
## # … with 15 more rows
…
