Estimate admixture weights — qpadm • admixtools
…
qpadm(example_f2_blocks, left, right, target)
#> ℹ Computing f4 stats...
#> ℹ Computing admixture weights...
#> ℹ Computing standard errors...
#> ℹ Computing number of admixture waves...
#> 
#> $weights
#> # A tibble: 2 × 5
#>   target      left                 weight    se     z
#>   <chr>       <chr>                 <dbl> <dbl> <dbl>
#> 1 Denisova.DG Altai_Neanderthal.DG   49.6  23.3  2.13
#> 2 Denisova.DG Vindija.DG            -48.6  23.3 -2.08
#> 
#> $f4
#> # A tibble: 36 × 9
#>    pop1        pop2        pop3  pop4       est      se       z         p weight
#>    <chr>       <chr>       <chr> <chr>    <dbl>   <dbl>   <dbl>     <dbl>  <dbl>
#>  1 Denisova.DG Altai_Nean… Chim… Mbut…  0.0129  3.64e-4  35.6   2.22e-277   49.6
#>  2 Denisova.DG Vindija.DG  Chim… Mbut…  0.0131  3.73e-4  35.0   7.55e-269  -48.6
#>  3 Denisova.DG fit         Chim… Mbut…  0.00693 6.60e-3   1.05  2.94e-  1   NA  
#>  4 Denisova.DG Altai_Nean… Chim… Russ…  0.0152  4.46e-4  34.0   4.67e-254   49.6
#>  5 Denisova.DG Vindija.DG  Chim… Russ…  0.0156  4.53e-4  34.5   2.14e-261  -48.6
#>  6 Denisova.DG fit         Chim… Russ… -0.00642 8.03e-3  -0.800 4.23e-  1   NA  
#>  7 Denisova.DG Altai_Nean… Chim… Swit…  0.0150  4.64e-4  32.3   6.06e-229   49.6
#>  8 Denisova.DG Vindija.DG  Chim… Swit…  0.0154  4.78e-4  32.2   5.81e-228  -48.6
#>  9 Denisova.DG fit         Chim… Swit… -0.00552 8.43e-3  -0.654 5.13e-  1   NA  
#> 10 Denisova.DG Altai_Nean… Mbut… Chim… -0.0129  3.64e-4 -35.6   2.22e-277   49.6
#> # ℹ 26 more rows
…
