Compute f3-statistics from f2-statistics. — qpgraph_precompute_f3 • admixtools
…
#> [10,]  1057974.69 -5993111.24  2381423.54  354820.787   145903.04  -380970.7983
#> [11,]  1125474.02  1243097.76 -3667933.00   45065.454  -241547.35   250093.0720
#> [12,]    55689.64   803976.12   616164.65  -15612.148   310815.82   -19242.4390
#> [13,] -4898289.95 -7272798.34 -6072004.00   71825.153  -142165.26   463353.5309
#> [14,]  -179725.51 -2273467.14  1221637.41 -313792.774 -1388116.20   837515.0928
#> [15,]    17123.71   915786.55 -1149801.42   19937.742    85981.25 -3439441.7449
#> [16,]  9305421.79 -2819367.85 -2703670.80  -13786.415    11443.07  -421541.1377
#> [17,] -2819367.85 24282777.17 -7664940.23   73557.157  -314019.95   438598.8715
#> [18,] -2703670.80 -7664940.23 19812359.38   96786.278   269398.28 -1100617.9688
#> [19,]   -13786.42    73557.16    96786.28  594998.284  -502984.76   196496.3178
#> [20,]    11443.07  -314019.95   269398.28 -502984.757  2978958.32 -1677098.6507
#> [21,]  -421541.14   438598.87 -1100617.97  196496.318 -1677098.65  4523828.7218
#> 
#> $f2out
#> # A tibble: 21 x 4
#>    pop1                 pop2                   f2est       se
#>    <chr>                <chr>                  <dbl>    <dbl>
#>  1 Chimp.REF            Altai_Neanderthal.DG  0.175  0.000861
#>  2 Chimp.REF            Vindija.DG            0.178  0.000881
#>  3 Chimp.REF            Mbuti.DG              0.160  0.000477
#>  4 Chimp.REF            Denisova.DG           0.157  0.000771
#>  5 Chimp.REF            Russia_Ust_Ishim.DG   0.200  0.00152 
#>  6 Chimp.REF            Switzerland_Bichon.SG 0.340  0.000744
#>  7 Altai_Neanderthal.DG Vindija.DG            0.0101 0.000367
#>  8 Altai_Neanderthal.DG Mbuti.DG              0.142  0.000694
#>  9 Altai_Neanderthal.DG Denisova.DG           0.109  0.000933
#> 10 Altai_Neanderthal.DG Russia_Ust_Ishim.DG   0.180  0.00176 
#> # … with 11 more rows
#> 
#> $f3out
#> # A tibble: 21 x 4
#>    pop1                 pop2                  f3est       se
#>    <chr>                <chr>                 <dbl>    <dbl>
#>  1 Chimp.REF            Chimp.REF            0.175  0.000861
#>  2 Chimp.REF            Altai_Neanderthal.DG 0.171  0.000824
#>  3 Chimp.REF            Vindija.DG           0.0960 0.000473
#>  4 Chimp.REF            Mbuti.DG             0.111  0.000650
#>  5 Chimp.REF            Denisova.DG          0.0972 0.000550
#>  6 Chimp.REF            Russia_Ust_Ishim.DG  0.0972 0.000539
#>  7 Altai_Neanderthal.DG Altai_Neanderthal.DG 0.178  0.000881
#>  8 Altai_Neanderthal.DG Vindija.DG           0.0961 0.000471
#>  9 Altai_Neanderthal.DG Mbuti.DG             0.111  0.000643
#> 10 Altai_Neanderthal.DG Denisova.DG          0.0976 0.000557
#> # … with 11 more rows
…
